{
  "images" : [
    {
      "filename" : "bfc9efc75af59850ed6658c4dd1979ab.png",
      "idiom" : "universal",
      "scale" : "1x"
    },
    {
      "filename" : "bfc9efc75af59850ed6658c4dd1979ab@2x.png",
      "idiom" : "universal",
      "scale" : "2x"
    },
    {
      "filename" : "bfc9efc75af59850ed6658c4dd1979ab@3x.png",
      "idiom" : "universal",
      "scale" : "3x"
    }
  ],
  "info" : {
    "author" : "xcode",
    "version" : 1
  }
}
